wind_speed,power_factor
0,0
0.5,0
1,0
2,0
3,0
4,0.1
5,0.2
6,0.3
7,0.4
8,0.5
9,0.6
10,0.7
11,0.8
12,0.9
13,0.99
14,0.99
15,0.99
16,0.99
17,0.99
18,0.99
19,0.99
20,0.90
21,0.80
22,0.00
23,0.00
24,0.00
25,0.00
